Building,ForSale,SoldOut,ForAgent,ForEnterprise,Total,Floor,Price,Agent
#1,12,12,2,4,30,20,40000,AAAA
#2,33,22,9,7,71,30,36000,BBBB
#3,21,3,4,9,40,20,55000,CCCC
#4,12,23,4,1,40,16,35000,DDDD
#5,9,15,3,2,29,7,90000,EEEE
